<svg width="24" height="24" viewBox="0 0 24 24" fill="none" xmlns="http://www.w3.org/2000/svg">
<path fill-rule="evenodd" clip-rule="evenodd" d="M9.70711 6.29289C10.0976 6.68342 10.0976 7.31658 9.70711 7.70711L6.41425 11H22C22.5523 11 23 11.4477 23 12C23 12.5522 22.5523 13 22 13H6.41417L9.70711 16.2929C10.0976 16.6834 10.0976 17.3166 9.70711 17.7071C9.31658 18.0976 8.68342 18.0976 8.29289 17.7071L3.29289 12.7071C3.19243 12.6066 3.11781 12.4901 3.06904 12.3658C3.02447 12.2525 3 12.1291 3 12C3 11.8568 3.03008 11.7207 3.08425 11.5976C3.12373 11.5077 3.17707 11.4224 3.24428 11.345C3.26154 11.3251 3.27957 11.3059 3.29833 11.2875L8.29289 6.29289C8.68342 5.90237 9.31658 5.90237 9.70711 6.29289Z" fill="black"/>
<mask id="mask0" mask-type="alpha" maskUnits="userSpaceOnUse" x="3" y="6" width="20" height="12">
<path fill-rule="evenodd" clip-rule="evenodd" d="M9.70711 6.29289C10.0976 6.68342 10.0976 7.31658 9.70711 7.70711L6.41425 11H22C22.5523 11 23 11.4477 23 12C23 12.5522 22.5523 13 22 13H6.41417L9.70711 16.2929C10.0976 16.6834 10.0976 17.3166 9.70711 17.7071C9.31658 18.0976 8.68342 18.0976 8.29289 17.7071L3.29289 12.7071C3.19243 12.6066 3.11781 12.4901 3.06904 12.3658C3.02447 12.2525 3 12.1291 3 12C3 11.8568 3.03008 11.7207 3.08425 11.5976C3.12373 11.5077 3.17707 11.4224 3.24428 11.345C3.26154 11.3251 3.27957 11.3059 3.29833 11.2875L8.29289 6.29289C8.68342 5.90237 9.31658 5.90237 9.70711 6.29289Z" fill="white"/>
</mask>
<g mask="url(#mask0)">
<rect width="24" height="24" fill="#2E384D"/>
</g>
</svg>
